[
  {
    "endpoint": "/*",
    "httpMethod": "POST",
    "permissions": [
      {
        "role": "ROLE_USER",
        "access": true
      }
    ]
  },
  {
    "endpoint": "/*",
    "httpMethod": "GET",
    "permissions": [
      {
        "role": "ROLE_USER",
        "access": true
      }
    ]
  },
  {
    "endpoint": "/*",
    "httpMethod": "PUT",
    "permissions": [
      {
        "role": "ROLE_USER",
        "access": true
      }
    ]
  },
  {
    "endpoint": "/*",
    "httpMethod": "DELETE",
    "permissions": [
      {
        "role": "ROLE_USER",
        "access": true
      }
    ]
  },
  {
    "endpoint": "/configuration/entityTypes/HCP/survivorshipGroups/default",
    "httpMethod": "PUT",
    "permissions": [
      {
        "role": "ROLE_USER",
        "access": false
      }
    ]
  },
  {
    "endpoint": "/configuration/entityTypes/HCA/survivorshipGroups/default",
    "httpMethod": "PUT",
    "permissions": [
      {
        "role": "ROLE_USER",
        "access": false
      }
    ]
  },
  {
    "endpoint": "/configuration/entityTypes/HCA/survivorshipGroups/hcaDefault",
    "httpMethod": "PUT",
    "permissions": [
      {
        "role": "ROLE_USER",
        "access": false
      }
    ]
  },
  {
    "endpoint": "/configuration/entityTypes/Location/survivorshipGroups/default",
    "httpMethod": "PUT",
    "permissions": [
      {
        "role": "ROLE_USER",
        "access": false
      }
    ]
  }
]